{
  "pluto" : {
    "x" : 234,
    "y" : 560,
    "health" : 4.300000000000004
  },
  "planets" : {
    "0" : 0,
    "1" : 0,
    "2" : 0,
    "3" : 0
  },
  "objects" : {
    "0" : false,
    "1" : false,
    "2" : false,
    "3" : false,
    "4" : false,
    "5" : false
  },
  "getHummer" : false,
  "getKey" : false,
  "getWood" : true,
  "getMetal" : false
}